ID, Name, Email, Phone
10, Sumon Mahmud, me@abutaleb.info,17705887585
ID," Name"," Email"," Phone"
10," Sumon Mahmud"," me@abutaleb.info"," 017705887585"
ID," Name"," Email"," Phone"
10," Sumon Mahmud"," me@abutaleb.info"," 017705887585"
ID," Name"," Email"," Phone"
10," Sumon Mahmud"," me@abutaleb.info"," 017705887585"
ID," Name"," Email"," Phone"
10," Sumon Mahmud"," me@abutaleb.info"," 017705887585"
ID," Name"," Email"," Phone"
10," Sumon Mahmud"," me@abutaleb.info"," 017705887585"
ID," Name"," Email"," Phone"
10," Sumon Mahmud"," me@abutaleb.info"," 017705887585"
